
/******** start userdata **********/ 
stdClass Object
(
    [id] => 134
    [role_id] => 3
    [first_name] => Ammarah
    [last_name] => Ayubi
    [username] => Ammarah@123
    [email] => ammarah@stzsoft.com
    [phone] => 8976578887
    [birth_date] => 02/05/1995
    [profile_pic] => _Ammarah.
    [total_family_member] => 3
    [password] => 57aa24c83836432fcbd7613cd41a9371
    [salt] => J0o2twiL
    [status] => Y
    [is_deleted] => N
    [society_id] => 29
    [house_id] => 68
    [authority_id] => 
    [updated_by] => 133
    [updated_date] => 2018-06-04 17:40:13
    [created_by] => 133
    [created_date] => 2018-06-04 17:40:13
)

/******** end 17:49:30********userdata **********/


/******** start wallet_details **********/ 
Array
(
    [0] => stdClass Object
        (
            [id] => 61
            [user_id] => 134
            [current_outstanding] => 0.00
            [wallet_balance] => 0.00
            [last_transaction_id] => 
            [updated_at] => 2018-06-04 17:40:14
            [created_at] => 2018-06-04 17:40:14
        )

)

/******** end 17:49:30********wallet_details **********/


/******** start house details **********/ 
Array
(
    [0] => stdClass Object
        (
            [id] => 68
            [society_id] => 29
            [building] => gokul dham
            [wing] => A
            [block] => 101
            [house_type] => 22
            [on_lease] => N
            [allocated] => Y
            [details] => House is not available on lease 
            [is_deleted] => N
            [house_picture] => _101.
            [updated_by] => 133
            [updated_date] => 2018-06-04 17:40:13
            [created_by] => 133
            [created_date] => 2018-06-04 17:40:13
        )

)

/******** end 17:49:30********house details **********/


/******** start house type **********/ 
Array
(
    [0] => stdClass Object
        (
            [id] => 22
            [society_id] => 29
            [house_type] => 1BHK
            [maintenance_charges] => 1000
            [lease_amt] => 18000
            [created_by] => 133
            [updated_at] => 2018-06-04 17:23:26
            [created_at] => 2018-06-04 17:23:26
        )

)

/******** end 17:49:30********house type **********/


/******** start parking_details **********/ 
Array
(
    [0] => stdClass Object
        (
            [id] => 40
            [society_id] => 29
            [user_id] => 134
            [pm_id] => 51
            [created_by] => 133
            [created_date] => 2018-06-04 17:48:58
            [updated_by] => 0
            [updated_date] => 
        )

)

/******** end 17:49:30********parking_details **********/


/******** start parking amount **********/ 
200
/******** end 17:49:30********parking amount **********/


/******** start facility_details **********/ 
Array
(
    [0] => stdClass Object
        (
            [id] => 42
            [society_id] => 29
            [user_id] => 134
            [facilty_id] => 26
            [total_member] => 1
            [adult_count] => 1
            [child_count] => 0
            [total_fees] => 100
            [is_deleted] => Y
            [updated_by] => 0
            [updated_at] => 2018-06-04 17:46:03
            [created_by] => 0
            [created_at] => 0000-00-00 00:00:00
        )

    [1] => stdClass Object
        (
            [id] => 43
            [society_id] => 29
            [user_id] => 134
            [facilty_id] => 28
            [total_member] => 1
            [adult_count] => 0
            [child_count] => 1
            [total_fees] => 100
            [is_deleted] => Y
            [updated_by] => 0
            [updated_at] => 2018-06-04 17:46:12
            [created_by] => 0
            [created_at] => 0000-00-00 00:00:00
        )

)

/******** end 17:49:30********facility_details **********/


/******** start facility charges **********/ 
200
/******** end 17:49:30********facility charges **********/


/******** start userdata **********/ 
stdClass Object
(
    [id] => 135
    [role_id] => 4
    [first_name] => priya
    [last_name] => singh
    [username] => priyasingh
    [email] => priya@stzsoft.com
    [phone] => 9870687531
    [birth_date] => 02/05/1995
    [profile_pic] => _priya.
    [total_family_member] => 3
    [password] => 94bf3eed4357665032c75e195a55ea64
    [salt] => CiWuEnFQ
    [status] => Y
    [is_deleted] => N
    [society_id] => 29
    [house_id] => 69
    [authority_id] => 
    [updated_by] => 133
    [updated_date] => 2018-06-04 17:41:32
    [created_by] => 133
    [created_date] => 2018-06-04 17:41:32
)

/******** end 17:49:30********userdata **********/


/******** start wallet_details **********/ 
Array
(
    [0] => stdClass Object
        (
            [id] => 62
            [user_id] => 135
            [current_outstanding] => 0.00
            [wallet_balance] => 0.00
            [last_transaction_id] => 
            [updated_at] => 2018-06-04 17:41:33
            [created_at] => 2018-06-04 17:41:33
        )

)

/******** end 17:49:30********wallet_details **********/


/******** start house details **********/ 
Array
(
    [0] => stdClass Object
        (
            [id] => 69
            [society_id] => 29
            [building] => gokul dham
            [wing] => A
            [block] => 102
            [house_type] => 22
            [on_lease] => N
            [allocated] => Y
            [details] => House is available on lease 
            [is_deleted] => N
            [house_picture] => _102.
            [updated_by] => 133
            [updated_date] => 2018-06-04 17:41:32
            [created_by] => 133
            [created_date] => 2018-06-04 17:41:32
        )

)

/******** end 17:49:30********house details **********/


/******** start house type **********/ 
Array
(
    [0] => stdClass Object
        (
            [id] => 22
            [society_id] => 29
            [house_type] => 1BHK
            [maintenance_charges] => 1000
            [lease_amt] => 18000
            [created_by] => 133
            [updated_at] => 2018-06-04 17:23:26
            [created_at] => 2018-06-04 17:23:26
        )

)

/******** end 17:49:30********house type **********/


/******** start parking_details **********/ 
Array
(
    [0] => stdClass Object
        (
            [id] => 41
            [society_id] => 29
            [user_id] => 135
            [pm_id] => 52
            [created_by] => 133
            [created_date] => 2018-06-04 17:49:05
            [updated_by] => 0
            [updated_date] => 
        )

)

/******** end 17:49:30********parking_details **********/


/******** start parking amount **********/ 
220
/******** end 17:49:30********parking amount **********/


/******** start facility_details **********/ 
Array
(
    [0] => stdClass Object
        (
            [id] => 44
            [society_id] => 29
            [user_id] => 135
            [facilty_id] => 27
            [total_member] => 2
            [adult_count] => 1
            [child_count] => 1
            [total_fees] => 180
            [is_deleted] => Y
            [updated_by] => 0
            [updated_at] => 2018-06-04 17:46:29
            [created_by] => 0
            [created_at] => 0000-00-00 00:00:00
        )

)

/******** end 17:49:30********facility_details **********/


/******** start facility charges **********/ 
180
/******** end 17:49:30********facility charges **********/


/******** start userdata **********/ 
stdClass Object
(
    [id] => 136
    [role_id] => 4
    [first_name] => prasad
    [last_name] => shimpi
    [username] => prasadshimpi
    [email] => prasad@stzsoft.com
    [phone] => 8691068863
    [birth_date] => 02/08/1989
    [profile_pic] => _prasad.
    [total_family_member] => 3
    [password] => e6e348d65e42a77a5d1557ed4c1be560
    [salt] => ujsnSRl2
    [status] => Y
    [is_deleted] => N
    [society_id] => 29
    [house_id] => 70
    [authority_id] => 
    [updated_by] => 133
    [updated_date] => 2018-06-04 17:43:39
    [created_by] => 133
    [created_date] => 2018-06-04 17:43:39
)

/******** end 17:49:31********userdata **********/


/******** start wallet_details **********/ 
Array
(
    [0] => stdClass Object
        (
            [id] => 63
            [user_id] => 136
            [current_outstanding] => 0.00
            [wallet_balance] => 0.00
            [last_transaction_id] => 
            [updated_at] => 2018-06-04 17:43:40
            [created_at] => 2018-06-04 17:43:40
        )

)

/******** end 17:49:31********wallet_details **********/


/******** start house details **********/ 
Array
(
    [0] => stdClass Object
        (
            [id] => 70
            [society_id] => 29
            [building] => gokul dham
            [wing] => A
            [block] => 103
            [house_type] => 22
            [on_lease] => N
            [allocated] => Y
            [details] => House is not available on lease 
            [is_deleted] => N
            [house_picture] => _103.
            [updated_by] => 133
            [updated_date] => 2018-06-04 17:43:39
            [created_by] => 133
            [created_date] => 2018-06-04 17:43:39
        )

)

/******** end 17:49:31********house details **********/


/******** start house type **********/ 
Array
(
    [0] => stdClass Object
        (
            [id] => 22
            [society_id] => 29
            [house_type] => 1BHK
            [maintenance_charges] => 1000
            [lease_amt] => 18000
            [created_by] => 133
            [updated_at] => 2018-06-04 17:23:26
            [created_at] => 2018-06-04 17:23:26
        )

)

/******** end 17:49:31********house type **********/


/******** start parking_details **********/ 
Array
(
    [0] => stdClass Object
        (
            [id] => 42
            [society_id] => 29
            [user_id] => 136
            [pm_id] => 53
            [created_by] => 133
            [created_date] => 2018-06-04 17:49:15
            [updated_by] => 0
            [updated_date] => 
        )

)

/******** end 17:49:31********parking_details **********/


/******** start parking amount **********/ 
200
/******** end 17:49:31********parking amount **********/


/******** start facility_details **********/ 
Array
(
    [0] => stdClass Object
        (
            [id] => 45
            [society_id] => 29
            [user_id] => 136
            [facilty_id] => 27
            [total_member] => 2
            [adult_count] => 2
            [child_count] => 0
            [total_fees] => 200
            [is_deleted] => Y
            [updated_by] => 0
            [updated_at] => 2018-06-04 17:46:46
            [created_by] => 0
            [created_at] => 0000-00-00 00:00:00
        )

)

/******** end 17:49:31********facility_details **********/


/******** start facility charges **********/ 
200
/******** end 17:49:31********facility charges **********/

